{
    "name": "ligo-app",
    "version": "0.0.0",
    "license": "MIT",
    "src": "testme.ligo",
    "entrypoint": "main",
    "dependencies": {
        "constants.ligo": "https://gitlab.com/melwyn95/ligo-exp/-/raw/v1/constants.ligo"
    }
  }
  